dump.vcd
$date
	Tue Jan 06 15:31:26 2026
$end
$version
	QuestaSim Version 10.7c
$end
$timescale
	1ps
$end

$scope module uvm_root $end
$upscope $end

$scope module tb $end
$var parameter 32 ! ADDR_WIDTH $end
$var parameter 32 " DATA_WIDTH $end
$var parameter 32 # FIFO_DEPTH $end
$var reg 1 $ clk_axi $end
$var reg 1 % clk_periph $end
$var reg 1 & axi_resetn $end

$scope module dut $end
$var parameter 32 ' ADDR_WIDTH $end
$var parameter 32 ( DATA_WIDTH $end
$var parameter 32 ) FIFO_DEPTH $end
$var parameter 32 * PTR $end
$var wire 1 + clk_axi $end
$var wire 1 , clk_periph $end
$var wire 1 - axi_resetn_i $end
$var wire 1 . axi_awaddr_i [3] $end
$var wire 1 / axi_awaddr_i [2] $end
$var wire 1 0 axi_awaddr_i [1] $end
$var wire 1 1 axi_awaddr_i [0] $end
$var wire 1 2 axi_awvalid_i $end
$var reg 1 3 axi_awready_o $end
$var wire 1 4 axi_wdata_i [31] $end
$var wire 1 5 axi_wdata_i [30] $end
$var wire 1 6 axi_wdata_i [29] $end
$var wire 1 7 axi_wdata_i [28] $end
$var wire 1 8 axi_wdata_i [27] $end
$var wire 1 9 axi_wdata_i [26] $end
$var wire 1 : axi_wdata_i [25] $end
$var wire 1 ; axi_wdata_i [24] $end
$var wire 1 < axi_wdata_i [23] $end
$var wire 1 = axi_wdata_i [22] $end
$var wire 1 > axi_wdata_i [21] $end
$var wire 1 ? axi_wdata_i [20] $end
$var wire 1 @ axi_wdata_i [19] $end
$var wire 1 A axi_wdata_i [18] $end
$var wire 1 B axi_wdata_i [17] $end
$var wire 1 C axi_wdata_i [16] $end
$var wire 1 D axi_wdata_i [15] $end
$var wire 1 E axi_wdata_i [14] $end
$var wire 1 F axi_wdata_i [13] $end
$var wire 1 G axi_wdata_i [12] $end
$var wire 1 H axi_wdata_i [11] $end
$var wire 1 I axi_wdata_i [10] $end
$var wire 1 J axi_wdata_i [9] $end
$var wire 1 K axi_wdata_i [8] $end
$var wire 1 L axi_wdata_i [7] $end
$var wire 1 M axi_wdata_i [6] $end
$var wire 1 N axi_wdata_i [5] $end
$var wire 1 O axi_wdata_i [4] $end
$var wire 1 P axi_wdata_i [3] $end
$var wire 1 Q axi_wdata_i [2] $end
$var wire 1 R axi_wdata_i [1] $end
$var wire 1 S axi_wdata_i [0] $end
$var wire 1 T axi_wstrb_i [3] $end
$var wire 1 U axi_wstrb_i [2] $end
$var wire 1 V axi_wstrb_i [1] $end
$var wire 1 W axi_wstrb_i [0] $end
$var wire 1 X axi_wvalid_i $end
$var reg 1 Y axi_wready_o $end
$var reg 2 Z axi_bresp_o [1:0] $end
$var reg 1 [ axi_bvalid_o $end
$var wire 1 \ axi_bready_i $end
$var wire 1 ] axi_araddr_i [3] $end
$var wire 1 ^ axi_araddr_i [2] $end
$var wire 1 _ axi_araddr_i [1] $end
$var wire 1 ` axi_araddr_i [0] $end
$var wire 1 a axi_arvalid_i $end
$var reg 1 b axi_arready_o $end
$var reg 32 c axi_rdata_o [31:0] $end
$var reg 2 d axi_rresp_o [1:0] $end
$var reg 1 e axi_rvalid_o $end
$var wire 1 f axi_rready_i $end
$var wire 1 g periph_rd_en_i $end
$var reg 32 h periph_rdata_o [31:0] $end
$var reg 1 i periph_rvalid_o $end
$var wire 1 j periph_empty_o $end
$var wire 1 k periph_full_o $end
$var wire 1 l irq_clear_full_i $end
$var wire 1 m irq_clear_empty_i $end
$var wire 1 n irq_full_o $end
$var wire 1 o irq_empty_o $end
$var reg 4 p fifo_wr_ptr_bin_r [3:0] $end
$var reg 4 q fifo_rd_ptr_bin_r [3:0] $end
$var reg 4 r fifo_wr_ptr_gray_r [3:0] $end
$var reg 4 s fifo_rd_ptr_gray_r [3:0] $end
$var reg 4 t fifo_rd_ptr_gray_sync_axi_1 [3:0] $end
$var reg 4 u fifo_rd_ptr_gray_sync_axi_2 [3:0] $end
$var reg 4 v fifo_wr_ptr_gray_sync_periph_1 [3:0] $end
$var reg 4 w fifo_wr_ptr_gray_sync_periph_2 [3:0] $end
$var reg 1 x axi_aw_pending_r $end
$var reg 4 y axi_awaddr_latched_r [3:0] $end
$var reg 1 z axi_w_pending_r $end
$var reg 32 { axi_wdata_latched_r [31:0] $end
$var wire 1 | fifo_wr_addr_w [2] $end
$var wire 1 } fifo_wr_addr_w [1] $end
$var wire 1 ~ fifo_wr_addr_w [0] $end
$var wire 1 !! fifo_rd_addr_w [2] $end
$var wire 1 "! fifo_rd_addr_w [1] $end
$var wire 1 #! fifo_rd_addr_w [0] $end
$var wire 1 $! fifo_rd_bin_sync_axi [3] $end
$var wire 1 %! fifo_rd_bin_sync_axi [2] $end
$var wire 1 &! fifo_rd_bin_sync_axi [1] $end
$var wire 1 '! fifo_rd_bin_sync_axi [0] $end
$var wire 1 (! fifo_wr_bin_sync_periph [3] $end
$var wire 1 )! fifo_wr_bin_sync_periph [2] $end
$var wire 1 *! fifo_wr_bin_sync_periph [1] $end
$var wire 1 +! fifo_wr_bin_sync_periph [0] $end
$var wire 1 ,! fifo_wr_bin_next_w [3] $end
$var wire 1 -! fifo_wr_bin_next_w [2] $end
$var wire 1 .! fifo_wr_bin_next_w [1] $end
$var wire 1 /! fifo_wr_bin_next_w [0] $end
$var wire 1 0! fifo_full_axi_w $end
$var wire 1 1! fifo_empty_periph_w $end
$var wire 1 2! fifo_empty_axi_w $end
$var wire 1 3! occupancy_axi_w [3] $end
$var wire 1 4! occupancy_axi_w [2] $end
$var wire 1 5! occupancy_axi_w [1] $end
$var wire 1 6! occupancy_axi_w [0] $end

$scope function bin2gray $end
$var reg 4 7! bin2gray [3:0] $end
$var reg 4 8! bin [3:0] $end
$upscope $end

$scope function gray2bin $end
$var reg 4 9! gray2bin [3:0] $end
$var reg 4 :! gray [3:0] $end
$var integer 32 ;! i $end
$upscope $end

$scope module u_fifo_interrupt_controller $end
$var wire 1 + clk $end
$var wire 1 - rst_n $end
$var wire 1 0! fifo_full $end
$var wire 1 2! fifo_empty $end
$var wire 1 l irq_clear_full $end
$var wire 1 m irq_clear_empty $end
$var reg 1 <! irq_full $end
$var reg 1 =! irq_empty $end
$upscope $end
$upscope $end
$upscope $end

$scope begin uvm_pkg $end
$var parameter 32 >! UVM_HDL_MAX_WIDTH $end
$var parameter 32 ?! UVM_STREAMBITS $end
$var parameter 32 @! UVM_RADIX $end
$var parameter 32 A! UVM_MACRO_NUMFLAGS $end
$var parameter 32 B! UVM_DEFAULT $end
$var parameter 32 C! UVM_ALL_ON $end
$var parameter 32 D! UVM_FLAGS_ON $end
$var parameter 32 E! UVM_FLAGS_OFF $end
$var parameter 32 F! UVM_COPY $end
$var parameter 32 G! UVM_NOCOPY $end
$var parameter 32 H! UVM_COMPARE $end
$var parameter 32 I! UVM_NOCOMPARE $end
$var parameter 32 J! UVM_PRINT $end
$var parameter 32 K! UVM_NOPRINT $end
$var parameter 32 L! UVM_RECORD $end
$var parameter 32 M! UVM_NORECORD $end
$var parameter 32 N! UVM_PACK $end
$var parameter 32 O! UVM_NOPACK $end
$var parameter 32 P! UVM_PHYSICAL $end
$var parameter 32 Q! UVM_ABSTRACT $end
$var parameter 32 R! UVM_READONLY $end
$var parameter 32 S! UVM_NODEFPRINT $end
$var parameter 32 T! UVM_MACRO_EXTRAS $end
$var parameter 32 U! UVM_FLAGS $end
$var parameter 32 V! UVM_UNPACK $end
$var parameter 32 W! UVM_CHECK_FIELDS $end
$var parameter 32 X! UVM_END_DATA_EXTRA $end
$var parameter 32 Y! UVM_START_FUNCS $end
$var parameter 32 Z! UVM_SET $end
$var parameter 32 [! UVM_SETINT $end
$var parameter 32 \! UVM_SETOBJ $end
$var parameter 32 ]! UVM_SETSTR $end
$var parameter 32 ^! UVM_END_FUNCS $end
$var parameter 32 _! UVM_STR_CRC_POLYNOMIAL $end
$var parameter 32 `! UVM_STDOUT $end
$var parameter 32 a! UVM_LINE_WIDTH $end
$var parameter 32 b! UVM_NUM_LINES $end
$var parameter 32 c! UVM_SMALL_STRING $end
$var parameter 32 d! UVM_LARGE_STRING $end
$var reg 1 e! uvm_start_uvm_declarations $end
$var integer 32 f! uvm_global_random_seed $end
$var integer 32 g! UVM_UNBOUNDED_CONNECTIONS $end

$scope function uvm_hdl_check_path $end
$var integer 32 h! uvm_hdl_check_path $end
$upscope $end

$scope function uvm_hdl_deposit $end
$var integer 32 i! uvm_hdl_deposit $end
$var reg 1024 j! value [1023:0] $end
$upscope $end

$scope function uvm_hdl_force $end
$var integer 32 k! uvm_hdl_force $end
$var reg 1024 l! value [1023:0] $end
$upscope $end

$scope task uvm_hdl_force_time $end
$var reg 1024 m! value [1023:0] $end
$var time 64 n! force_time $end
$upscope $end

$scope function uvm_hdl_release_and_read $end
$var integer 32 o! uvm_hdl_release_and_read $end
$var reg 1024 p! value [1023:0] $end
$upscope $end

$scope function uvm_hdl_release $end
$var integer 32 q! uvm_hdl_release $end
$upscope $end

$scope function uvm_hdl_read $end
$var integer 32 r! uvm_hdl_read $end
$var reg 1024 s! value [1023:0] $end
$upscope $end

$scope function uvm_dpi_get_next_arg_c $end
$upscope $end

$scope function uvm_dpi_get_tool_name_c $end
$upscope $end

$scope function uvm_dpi_get_tool_version_c $end
$upscope $end

$scope function uvm_dpi_get_next_arg $end
$upscope $end

$scope function uvm_dpi_get_tool_name $end
$upscope $end

$scope function uvm_dpi_get_tool_version $end
$upscope $end

$scope function uvm_dpi_regcomp $end
$upscope $end

$scope function uvm_dpi_regexec $end
$var integer 32 t! uvm_dpi_regexec $end
$upscope $end

$scope function uvm_dpi_regfree $end
$upscope $end

$scope function uvm_re_match $end
$var integer 32 u! uvm_re_match $end
$upscope $end

$scope function uvm_dump_re_cache $end
$upscope $end

$scope function uvm_glob_to_re $end
$upscope $end

$scope function uvm_revision_string $end
$upscope $end

$scope function uvm_radix_to_string $end
$var integer 32 v! radix $end
$upscope $end

$scope function uvm_instance_scope $end
$var reg 8 w! c [7:0] $end
$var integer 32 x! pos $end
$upscope $end

$scope function uvm_oneway_hash $end
$var integer 32 y! uvm_oneway_hash $end
$var integer 32 z! seed $end
$var reg 1 {! msb $end
$var reg 8 |! current_byte [7:0] $end
$var reg 32 }! crc1 [31:0] $end
$upscope $end

$scope function uvm_create_random_seed $end
$var integer 32 ~! uvm_create_random_seed $end
$upscope $end

$scope function uvm_object_value_str $end
$upscope $end

$scope function uvm_leaf_scope $end
$var reg 8 !" scope_separator [7:0] $end
$var reg 8 "" bracket_match [7:0] $end
$var integer 32 #" pos $end
$var integer 32 $" bmatches $end
$upscope $end

$scope function uvm_vector_to_string $end
$var reg 4096 %" value [4095:0] $end
$var integer 32 &" size $end
$var integer 32 '" radix $end
$upscope $end

$scope function uvm_get_array_index_int $end
$var integer 32 (" uvm_get_array_index_int $end
$var reg 1 )" is_wildcard $end
$var integer 32 *" i $end
$upscope $end

$scope function uvm_get_array_index_string $end
$var reg 1 +" is_wildcard $end
$var integer 32 ," i $end
$upscope $end

$scope function uvm_is_array $end
$var reg 1 -" uvm_is_array $end
$upscope $end

$scope function uvm_has_wildcard $end
$upscope $end

$scope task run_test $end
$upscope $end

$scope function global_stop_request $end
$upscope $end

$scope function set_global_timeout $end
$var time 64 ." timeout $end
$var reg 1 /" overridable $end
$upscope $end

$scope function set_global_stop_timeout $end
$var time 64 0" timeout $end
$upscope $end

$scope function uvm_report_enabled $end
$var reg 1 1" uvm_report_enabled $end
$var integer 32 2" verbosity $end
$var reg 2 3" severity [1:0] $end
$upscope $end

$scope function uvm_report $end
$var reg 2 4" severity [1:0] $end
$var integer 32 5" verbosity $end
$var integer 32 6" line $end
$upscope $end

$scope function uvm_report_info $end
$var integer 32 7" verbosity $end
$var integer 32 8" line $end
$upscope $end

$scope function uvm_report_warning $end
$var integer 32 9" verbosity $end
$var integer 32 :" line $end
$upscope $end

$scope function uvm_report_error $end
$var integer 32 ;" verbosity $end
$var integer 32 <" line $end
$upscope $end

$scope function uvm_report_fatal $end
$var integer 32 =" verbosity $end
$var integer 32 >" line $end
$upscope $end

$scope function uvm_string_to_severity $end
$var reg 1 ?" uvm_string_to_severity $end
$var reg 2 @" sev [1:0] $end
$upscope $end

$scope function uvm_string_to_action $end
$upscope $end

$scope function set_config_int $end
$var reg 4096 A" value [4095:0] $end
$upscope $end

$scope function set_config_object $end
$var reg 1 B" clone $end
$upscope $end

$scope function set_config_string $end
$upscope $end

$scope function uvm_is_match $end
$var reg 1 C" uvm_is_match $end
$upscope $end

$scope function uvm_string_to_bits $end
$var reg 115200 D" uvm_string_to_bits [115199:0] $end
$upscope $end

$scope function uvm_bits_to_string $end
$var reg 115200 E" str [115199:0] $end
$upscope $end

$scope task uvm_wait_for_nba_region $end
$var integer 32 F" nba $end
$var integer 32 G" next_nba $end
$upscope $end

$scope function uvm_split_string $end
$upscope $end

$scope function uvm_hdl_concat2string $end
$upscope $end
$upscope $end

$scope begin axi4_uvm_pkg $end
$upscope $end

$scope begin testbench_sv_unit $end
$upscope $end

$scope begin std $end
$upscope $end

$scope begin questa_uvm_pkg $end
$upscope $end
$enddefinitions $end
#0
$dumpvars
0+"
0-"
0?"
b0 @"
bx D"
bx E"
bx j!
bx l!
bx m!
bx p!
bx s!
1e!
1{!
b1110010 |!
b10000010101111110010001000101101 }!
bx %"
0)"
0/"
01"
b0 3"
b0 4"
bx A"
0B"
0C"
0$
0%
0&
03
0Y
b0 Z
0[
0b
b0 c
b0 d
0e
b0 h
0i
b0 p
b0 q
b0 r
b0 s
b0 t
b0 u
b0 v
b0 w
0x
b0 y
0z
b0 {
bx 7!
bx 8!
b0 9!
b0 :!
0<!
0=!
b10000000000 >!
b1000000000000 ?!
b1111000000000000000000000000 @!
b10001 A!
b10101010101 B!
b101010101 C!
b101010101 D!
b0 E!
b1 F!
b10 G!
b100 H!
b1000 I!
b10000 J!
b100000 K!
b1000000 L!
b10000000 M!
b100000000 N!
b1000000000 O!
b10000000000000 P!
b100000000000000 Q!
b1000000000000000 R!
b10000000000000000 S!
b100000000000000000 T!
b100000000000000001 U!
b100000000000000010 V!
b100000000000000011 W!
b100000000000000100 X!
b100000000000000101 Y!
b100000000000000110 Z!
b100000000000000110 [!
b100000000000000111 \!
b100000000000001000 ]!
b100000000000001000 ^!
b100110000010001110110110110 _!
b1 `!
b1111000 a!
b1111000 b!
b1110111111 c!
b11100000111111111 d!
b100 !
b100000 "
b1000 #
b100 '
b100000 (
b1000 )
b11 *
b0 v!
b0 !"
b0 ""
b0 #"
b0 $"
b0 ,"
b0 h!
b0 i!
b0 k!
b0 o!
b0 q!
b0 r!
b1 t!
b0 u!
b1101001011000001111100000011110 f!
b101110 w!
b111 x!
b111100001111100011100010011011 y!
b1101001011000001111100000011110 z!
b10110001100101110110011110110011 ~!
b0 &"
b0 '"
b0 ("
b0 *"
b111110100 2"
b0 5"
b0 6"
b11001000 7"
b11011000 8"
b0 9"
b0 :"
b0 ;"
b0 <"
b0 ="
b0 >"
b100011 F"
b100011 G"
b11111111111111111111111111111111 g!
b11111111111111111111111111111111 ;!
bx n!
bx ."
bx 0"
0-
0,
0+
01
00
0/
0.
02
0S
0R
0Q
0P
0O
0N
0M
0L
0K
0J
0I
0H
0G
0F
0E
0D
0C
0B
0A
0@
0?
0>
0=
0<
0;
0:
09
08
07
06
05
04
0W
0V
0U
0T
0X
0\
0`
0_
0^
0]
0a
0f
0g
1j
0k
0l
0m
0n
0o
0~
0}
0|
0#!
0"!
0!!
0'!
0&!
0%!
0$!
0+!
0*!
0)!
0(!
1/!
0.!
0-!
0,!
00!
11!
12!
06!
05!
04!
03!
$end
#5000
1$
1+
#7000
1%
1,
#10000
0$
0+
#14000
0%
0,
#15000
1$
1+
#20000
0$
0+
#21000
1%
1,
#25000
1$
1+
#28000
0%
0,
#30000
0$
0+
#35000
1%
1$
1,
1+
#40000
0$
0+
#42000
0%
0,
#45000
1$
1+
#49000
1%
1,
#50000
1&
0$
1-
0+
b100100 G"
b100100 F"
#55000
1$
1+
1=!
13
1Y
1b
1o
12
1W
1V
1U
1T
1S
1R
1Q
1P
1N
1M
1L
1J
1I
1H
1G
1F
1D
1C
1A
1@
1>
1<
1:
19
18
17
15
14
1X
#56000
0%
0,
#60000
0$
0+
#63000
1%
1,
#65000
1$
1+
b1 8!
b1 7!
1x
1z
b11011110101011011011111011101111 {
b1 p
b1 r
1[
0x
0z
02!
1~
0/!
1.!
16!
02
0X
1\
#70000
0%
0$
0,
0+
#75000
1$
1+
b101110 !"
b1 #"
b0 #"
b1100001101010000 %"
b1000000 &"
b1001000000000000000000000000 '"
b1100 #"
b1011 #"
b1010 #"
b1001 #"
b1000 #"
b111 #"
b110 #"
b101 #"
b100 #"
b11 #"
b10 #"
b11111111111111111111111111111111 $"
b10 %"
b100000 &"
b10000000000000000000000000 '"
b0 $"
b111 #"
b110 #"
b101 #"
b100 #"
b11 #"
b10 #"
b11111111111111111111111111111111 $"
b0 $"
b11000 #"
b10111 #"
b10110 #"
b10101 #"
b10100 #"
b10011 #"
b10010 #"
b10001 #"
b10000 #"
b1111 #"
b1110 #"
b1101 #"
b1100 #"
b1011 #"
b1010 #"
b1001 #"
b1000 #"
b111 #"
b110 #"
b101 #"
b100 #"
b11 #"
b10 #"
b11111111111111111111111111111111 $"
b0 $"
b11101 #"
b11100 #"
b11011 #"
b11010 #"
b11001 #"
b11000 #"
b10111 #"
b10110 #"
b10101 #"
b10100 #"
b10011 #"
b10010 #"
b10001 #"
b10000 #"
b1111 #"
b1110 #"
b1101 #"
b1100 #"
b1011 #"
b1010 #"
b1001 #"
b1000 #"
b111 #"
b110 #"
b101 #"
b100 #"
b11 #"
b10 #"
b11111111111111111111111111111111 $"
b0 $"
b1011 #"
b1010 #"
b1001 #"
b1000 #"
b111 #"
b110 #"
b101 #"
b100 #"
b11 #"
b10 #"
b11111111111111111111111111111111 $"
b100101 G"
b111100001111100011100010011100 ~!
03
0Y
0[
b100101 F"
0\
#77000
1%
1,
b1 v
#80000
0$
0+
#84000
0%
0,
#85000
1$
1+
13
1Y
12
0S
1O
0I
0G
0F
1E
1=
16
1X
#90000
0$
0+
#91000
1%
1,
b1 w
b1 :!
b10 ;!
b1 ;!
b0 ;!
b1 9!
b11111111111111111111111111111111 ;!
1+!
01!
0j
#95000
1$
1+
b10 8!
b11 7!
1x
1z
b11111110111011011100101011111110 {
b10 p
b11 r
1[
0x
0z
0~
1}
1/!
06!
15!
02
0X
1\
#98000
0%
0,
#100000
0$
0+
#105000
1%
1$
1,
1+
b0 $"
b1 #"
b0 #"
b10010010011111000 %"
b1000000 &"
b1001000000000000000000000000 '"
b1100 #"
b1011 #"
b1010 #"
b1001 #"
b1000 #"
b111 #"
b110 #"
b101 #"
b100 #"
b11 #"
b10 #"
b11111111111111111111111111111111 $"
b0 $"
b1010 #"
b1001 #"
b1000 #"
b111 #"
b110 #"
b101 #"
b100 #"
b11 #"
b10 #"
b11111111111111111111111111111111 $"
b10 %"
b100000 &"
b10000000000000000000000000 '"
b0 $"
b111 #"
b110 #"
b101 #"
b100 #"
b11 #"
b10 #"
b11111111111111111111111111111111 $"
b0 $"
b11000 #"
b10111 #"
b10110 #"
b10101 #"
b10100 #"
b10011 #"
b10010 #"
b10001 #"
b10000 #"
b1111 #"
b1110 #"
b1101 #"
b1100 #"
b1011 #"
b1010 #"
b1001 #"
b1000 #"
b111 #"
b110 #"
b101 #"
b100 #"
b11 #"
b10 #"
b11111111111111111111111111111111 $"
b0 $"
b11101 #"
b11100 #"
b11011 #"
b11010 #"
b11001 #"
b11000 #"
b10111 #"
b10110 #"
b10101 #"
b10100 #"
b10011 #"
b10010 #"
b10001 #"
b10000 #"
b1111 #"
b1110 #"
b1101 #"
b1100 #"
b1011 #"
b1010 #"
b1001 #"
b1000 #"
b111 #"
b110 #"
b101 #"
b100 #"
b11 #"
b10 #"
b11111111111111111111111111111111 $"
b0 $"
b1011 #"
b1010 #"
b1001 #"
b1000 #"
b111 #"
b110 #"
b101 #"
b100 #"
b11 #"
b10 #"
b11111111111111111111111111111111 $"
b100110 G"
b111100001111100011100010011110 ~!
03
0Y
0[
b11 v
b100110 F"
0\
#110000
0$
0+
#112000
0%
0,
#115000
1$
1+
13
1Y
#119000
1%
1,
b11 w
b11 :!
b10 ;!
b1 ;!
b11 9!
b0 ;!
b10 9!
b11111111111111111111111111111111 ;!
0+!
1*!
1g
#120000
0$
0+
#125000
1$
1+
#126000
0%
0,
#130000
0$
0+
#133000
1%
1,
b1 8!
b1 7!
b0 $"
b1 #"
b0 #"
b11001101000101000 %"
b1000000 &"
b1001000000000000000000000000 '"
b1100 #"
b1011 #"
b1010 #"
b1001 #"
b1000 #"
b111 #"
b110 #"
b101 #"
b100 #"
b11 #"
b10 #"
b11111111111111111111111111111111 $"
b0 $"
b1010 #"
b1001 #"
b1000 #"
b111 #"
b110 #"
b101 #"
b100 #"
b11 #"
b10 #"
b11111111111111111111111111111111 $"
b10 %"
b100000 &"
b10000000000000000000000000 '"
b0 $"
b111 #"
b110 #"
b101 #"
b100 #"
b11 #"
b10 #"
b11111111111111111111111111111111 $"
b0 $"
b11000 #"
b10111 #"
b10110 #"
b10101 #"
b10100 #"
b10011 #"
b10010 #"
b10001 #"
b10000 #"
b1111 #"
b1110 #"
b1101 #"
b1100 #"
b1011 #"
b1010 #"
b1001 #"
b1000 #"
b111 #"
b110 #"
b101 #"
b100 #"
b11 #"
b10 #"
b11111111111111111111111111111111 $"
b0 $"
b11101 #"
b11100 #"
b11011 #"
b11010 #"
b11001 #"
b11000 #"
b10111 #"
b10110 #"
b10101 #"
b10100 #"
b10011 #"
b10010 #"
b10001 #"
b10000 #"
b1111 #"
b1110 #"
b1101 #"
b1100 #"
b1011 #"
b1010 #"
b1001 #"
b1000 #"
b111 #"
b110 #"
b101 #"
b100 #"
b11 #"
b10 #"
b11111111111111111111111111111111 $"
b0 $"
b1011 #"
b1010 #"
b1001 #"
b1000 #"
b111 #"
b110 #"
b101 #"
b100 #"
b11 #"
b10 #"
b11111111111111111111111111111111 $"
b100111 G"
b111100001111100011100010100001 ~!
b11011110101011011011111011101111 h
1i
b1 q
b1 s
b100111 F"
1#!
0g
#135000
1$
1+
b1 t
#140000
0%
0$
0,
0+
#145000
1$
1+
b1 u
b1 :!
b10 ;!
b1 ;!
b0 9!
b0 ;!
b1 9!
b11111111111111111111111111111111 ;!
1'!
16!
05!
#147000
1%
1,
0i
1g
#150000
0$
0+
#154000
0%
0,
#155000
1$
1+
#160000
0$
0+
#161000
1%
1,
b10 8!
b11 7!
b0 $"
b1 #"
b0 #"
b100000011110001000 %"
b1000000 &"
b1001000000000000000000000000 '"
b1100 #"
b1011 #"
b1010 #"
b1001 #"
b1000 #"
b111 #"
b110 #"
b101 #"
b100 #"
b11 #"
b10 #"
b11111111111111111111111111111111 $"
b0 $"
b1010 #"
b1001 #"
b1000 #"
b111 #"
b110 #"
b101 #"
b100 #"
b11 #"
b10 #"
b11111111111111111111111111111111 $"
b10 %"
b100000 &"
b10000000000000000000000000 '"
b0 $"
b111 #"
b110 #"
b101 #"
b100 #"
b11 #"
b10 #"
b11111111111111111111111111111111 $"
b0 $"
b11000 #"
b10111 #"
b10110 #"
b10101 #"
b10100 #"
b10011 #"
b10010 #"
b10001 #"
b10000 #"
b1111 #"
b1110 #"
b1101 #"
b1100 #"
b1011 #"
b1010 #"
b1001 #"
b1000 #"
b111 #"
b110 #"
b101 #"
b100 #"
b11 #"
b10 #"
b11111111111111111111111111111111 $"
b0 $"
b11101 #"
b11100 #"
b11011 #"
b11010 #"
b11001 #"
b11000 #"
b10111 #"
b10110 #"
b10101 #"
b10100 #"
b10011 #"
b10010 #"
b10001 #"
b10000 #"
b1111 #"
b1110 #"
b1101 #"
b1100 #"
b1011 #"
b1010 #"
b1001 #"
b1000 #"
b111 #"
b110 #"
b101 #"
b100 #"
b11 #"
b10 #"
b11111111111111111111111111111111 $"
b0 $"
b1011 #"
b1010 #"
b1001 #"
b1000 #"
b111 #"
b110 #"
b101 #"
b100 #"
b11 #"
b10 #"
b11111111111111111111111111111111 $"
b101000 G"
b11111110111011011100101011111110 h
1i
b10 q
b11 s
b101000 F"
11!
0#!
1"!
0g
1j
#165000
1$
1+
b11 t
#168000
0%
0,
#170000
0$
0+
#175000
1%
1$
1,
1+
b11 u
0i
b11 :!
b10 ;!
b1 ;!
b11 9!
b0 ;!
b10 9!
b11111111111111111111111111111111 ;!
0'!
1&!
06!
12!
