dump.vcd
$date
	Tue Jan 06 13:06:08 2026
$end
$version
	QuestaSim Version 10.7c
$end
$timescale
	1ps
$end

$scope module uvm_root $end
$upscope $end

$scope module tb $end
$var reg 1 ! clk_axi $end
$var reg 1 " clk_periph $end
$var reg 1 # axi_resetn $end

$scope module dut $end
$var parameter 32 $ ADDR_WIDTH $end
$var parameter 32 % DATA_WIDTH $end
$var parameter 32 & FIFO_DEPTH $end
$var parameter 32 ' PTR $end
$var wire 1 ( clk_axi $end
$var wire 1 ) clk_periph $end
$var wire 1 * axi_resetn_i $end
$var wire 1 + axi_awaddr_i [3] $end
$var wire 1 , axi_awaddr_i [2] $end
$var wire 1 - axi_awaddr_i [1] $end
$var wire 1 . axi_awaddr_i [0] $end
$var wire 1 / axi_awvalid_i $end
$var reg 1 0 axi_awready_o $end
$var wire 1 1 axi_wdata_i [31] $end
$var wire 1 2 axi_wdata_i [30] $end
$var wire 1 3 axi_wdata_i [29] $end
$var wire 1 4 axi_wdata_i [28] $end
$var wire 1 5 axi_wdata_i [27] $end
$var wire 1 6 axi_wdata_i [26] $end
$var wire 1 7 axi_wdata_i [25] $end
$var wire 1 8 axi_wdata_i [24] $end
$var wire 1 9 axi_wdata_i [23] $end
$var wire 1 : axi_wdata_i [22] $end
$var wire 1 ; axi_wdata_i [21] $end
$var wire 1 < axi_wdata_i [20] $end
$var wire 1 = axi_wdata_i [19] $end
$var wire 1 > axi_wdata_i [18] $end
$var wire 1 ? axi_wdata_i [17] $end
$var wire 1 @ axi_wdata_i [16] $end
$var wire 1 A axi_wdata_i [15] $end
$var wire 1 B axi_wdata_i [14] $end
$var wire 1 C axi_wdata_i [13] $end
$var wire 1 D axi_wdata_i [12] $end
$var wire 1 E axi_wdata_i [11] $end
$var wire 1 F axi_wdata_i [10] $end
$var wire 1 G axi_wdata_i [9] $end
$var wire 1 H axi_wdata_i [8] $end
$var wire 1 I axi_wdata_i [7] $end
$var wire 1 J axi_wdata_i [6] $end
$var wire 1 K axi_wdata_i [5] $end
$var wire 1 L axi_wdata_i [4] $end
$var wire 1 M axi_wdata_i [3] $end
$var wire 1 N axi_wdata_i [2] $end
$var wire 1 O axi_wdata_i [1] $end
$var wire 1 P axi_wdata_i [0] $end
$var wire 1 Q axi_wstrb_i [3] $end
$var wire 1 R axi_wstrb_i [2] $end
$var wire 1 S axi_wstrb_i [1] $end
$var wire 1 T axi_wstrb_i [0] $end
$var wire 1 U axi_wvalid_i $end
$var reg 1 V axi_wready_o $end
$var reg 2 W axi_bresp_o [1:0] $end
$var reg 1 X axi_bvalid_o $end
$var wire 1 Y axi_bready_i $end
$var wire 1 Z axi_araddr_i [3] $end
$var wire 1 [ axi_araddr_i [2] $end
$var wire 1 \ axi_araddr_i [1] $end
$var wire 1 ] axi_araddr_i [0] $end
$var wire 1 ^ axi_arvalid_i $end
$var reg 1 _ axi_arready_o $end
$var reg 32 ` axi_rdata_o [31:0] $end
$var reg 2 a axi_rresp_o [1:0] $end
$var reg 1 b axi_rvalid_o $end
$var wire 1 c axi_rready_i $end
$var wire 1 d periph_rd_en_i $end
$var reg 32 e periph_rdata_o [31:0] $end
$var reg 1 f periph_rvalid_o $end
$var wire 1 g periph_empty_o $end
$var wire 1 h periph_full_o $end
$var wire 1 i irq_clear_full_i $end
$var wire 1 j irq_clear_empty_i $end
$var wire 1 k irq_full_o $end
$var wire 1 l irq_empty_o $end
$var reg 4 m fifo_wr_ptr_bin_r [3:0] $end
$var reg 4 n fifo_rd_ptr_bin_r [3:0] $end
$var reg 4 o fifo_wr_ptr_gray_r [3:0] $end
$var reg 4 p fifo_rd_ptr_gray_r [3:0] $end
$var reg 4 q fifo_rd_ptr_gray_sync_axi_1 [3:0] $end
$var reg 4 r fifo_rd_ptr_gray_sync_axi_2 [3:0] $end
$var reg 4 s fifo_wr_ptr_gray_sync_periph_1 [3:0] $end
$var reg 4 t fifo_wr_ptr_gray_sync_periph_2 [3:0] $end
$var reg 1 u axi_aw_pending_r $end
$var reg 4 v axi_awaddr_latched_r [3:0] $end
$var reg 1 w axi_w_pending_r $end
$var reg 32 x axi_wdata_latched_r [31:0] $end
$var wire 1 y fifo_wr_addr_w [2] $end
$var wire 1 z fifo_wr_addr_w [1] $end
$var wire 1 { fifo_wr_addr_w [0] $end
$var wire 1 | fifo_rd_addr_w [2] $end
$var wire 1 } fifo_rd_addr_w [1] $end
$var wire 1 ~ fifo_rd_addr_w [0] $end
$var wire 1 !! fifo_rd_bin_sync_axi [3] $end
$var wire 1 "! fifo_rd_bin_sync_axi [2] $end
$var wire 1 #! fifo_rd_bin_sync_axi [1] $end
$var wire 1 $! fifo_rd_bin_sync_axi [0] $end
$var wire 1 %! fifo_wr_bin_sync_periph [3] $end
$var wire 1 &! fifo_wr_bin_sync_periph [2] $end
$var wire 1 '! fifo_wr_bin_sync_periph [1] $end
$var wire 1 (! fifo_wr_bin_sync_periph [0] $end
$var wire 1 )! fifo_wr_bin_next_w [3] $end
$var wire 1 *! fifo_wr_bin_next_w [2] $end
$var wire 1 +! fifo_wr_bin_next_w [1] $end
$var wire 1 ,! fifo_wr_bin_next_w [0] $end
$var wire 1 -! fifo_full_axi_w $end
$var wire 1 .! fifo_empty_periph_w $end
$var wire 1 /! fifo_empty_axi_w $end
$var wire 1 0! occupancy_axi_w [3] $end
$var wire 1 1! occupancy_axi_w [2] $end
$var wire 1 2! occupancy_axi_w [1] $end
$var wire 1 3! occupancy_axi_w [0] $end

$scope function bin2gray $end
$var reg 4 4! bin2gray [3:0] $end
$var reg 4 5! bin [3:0] $end
$upscope $end

$scope function gray2bin $end
$var reg 4 6! gray2bin [3:0] $end
$var reg 4 7! gray [3:0] $end
$var integer 32 8! i $end
$upscope $end

$scope module u_fifo_interrupt_controller $end
$var wire 1 ( clk $end
$var wire 1 * rst_n $end
$var wire 1 -! fifo_full $end
$var wire 1 /! fifo_empty $end
$var wire 1 i irq_clear_full $end
$var wire 1 j irq_clear_empty $end
$var reg 1 9! irq_full $end
$var reg 1 :! irq_empty $end
$upscope $end
$upscope $end
$upscope $end

$scope begin uvm_pkg $end
$var parameter 32 ;! UVM_HDL_MAX_WIDTH $end
$var parameter 32 <! UVM_STREAMBITS $end
$var parameter 32 =! UVM_RADIX $end
$var parameter 32 >! UVM_MACRO_NUMFLAGS $end
$var parameter 32 ?! UVM_DEFAULT $end
$var parameter 32 @! UVM_ALL_ON $end
$var parameter 32 A! UVM_FLAGS_ON $end
$var parameter 32 B! UVM_FLAGS_OFF $end
$var parameter 32 C! UVM_COPY $end
$var parameter 32 D! UVM_NOCOPY $end
$var parameter 32 E! UVM_COMPARE $end
$var parameter 32 F! UVM_NOCOMPARE $end
$var parameter 32 G! UVM_PRINT $end
$var parameter 32 H! UVM_NOPRINT $end
$var parameter 32 I! UVM_RECORD $end
$var parameter 32 J! UVM_NORECORD $end
$var parameter 32 K! UVM_PACK $end
$var parameter 32 L! UVM_NOPACK $end
$var parameter 32 M! UVM_PHYSICAL $end
$var parameter 32 N! UVM_ABSTRACT $end
$var parameter 32 O! UVM_READONLY $end
$var parameter 32 P! UVM_NODEFPRINT $end
$var parameter 32 Q! UVM_MACRO_EXTRAS $end
$var parameter 32 R! UVM_FLAGS $end
$var parameter 32 S! UVM_UNPACK $end
$var parameter 32 T! UVM_CHECK_FIELDS $end
$var parameter 32 U! UVM_END_DATA_EXTRA $end
$var parameter 32 V! UVM_START_FUNCS $end
$var parameter 32 W! UVM_SET $end
$var parameter 32 X! UVM_SETINT $end
$var parameter 32 Y! UVM_SETOBJ $end
$var parameter 32 Z! UVM_SETSTR $end
$var parameter 32 [! UVM_END_FUNCS $end
$var parameter 32 \! UVM_STR_CRC_POLYNOMIAL $end
$var parameter 32 ]! UVM_STDOUT $end
$var parameter 32 ^! UVM_LINE_WIDTH $end
$var parameter 32 _! UVM_NUM_LINES $end
$var parameter 32 `! UVM_SMALL_STRING $end
$var parameter 32 a! UVM_LARGE_STRING $end
$var reg 1 b! uvm_start_uvm_declarations $end
$var integer 32 c! uvm_global_random_seed $end
$var integer 32 d! UVM_UNBOUNDED_CONNECTIONS $end

$scope function uvm_hdl_check_path $end
$var integer 32 e! uvm_hdl_check_path $end
$upscope $end

$scope function uvm_hdl_deposit $end
$var integer 32 f! uvm_hdl_deposit $end
$var reg 1024 g! value [1023:0] $end
$upscope $end

$scope function uvm_hdl_force $end
$var integer 32 h! uvm_hdl_force $end
$var reg 1024 i! value [1023:0] $end
$upscope $end

$scope task uvm_hdl_force_time $end
$var reg 1024 j! value [1023:0] $end
$var time 64 k! force_time $end
$upscope $end

$scope function uvm_hdl_release_and_read $end
$var integer 32 l! uvm_hdl_release_and_read $end
$var reg 1024 m! value [1023:0] $end
$upscope $end

$scope function uvm_hdl_release $end
$var integer 32 n! uvm_hdl_release $end
$upscope $end

$scope function uvm_hdl_read $end
$var integer 32 o! uvm_hdl_read $end
$var reg 1024 p! value [1023:0] $end
$upscope $end

$scope function uvm_dpi_get_next_arg_c $end
$upscope $end

$scope function uvm_dpi_get_tool_name_c $end
$upscope $end

$scope function uvm_dpi_get_tool_version_c $end
$upscope $end

$scope function uvm_dpi_get_next_arg $end
$upscope $end

$scope function uvm_dpi_get_tool_name $end
$upscope $end

$scope function uvm_dpi_get_tool_version $end
$upscope $end

$scope function uvm_dpi_regcomp $end
$upscope $end

$scope function uvm_dpi_regexec $end
$var integer 32 q! uvm_dpi_regexec $end
$upscope $end

$scope function uvm_dpi_regfree $end
$upscope $end

$scope function uvm_re_match $end
$var integer 32 r! uvm_re_match $end
$upscope $end

$scope function uvm_dump_re_cache $end
$upscope $end

$scope function uvm_glob_to_re $end
$upscope $end

$scope function uvm_revision_string $end
$upscope $end

$scope function uvm_radix_to_string $end
$var integer 32 s! radix $end
$upscope $end

$scope function uvm_instance_scope $end
$var reg 8 t! c [7:0] $end
$var integer 32 u! pos $end
$upscope $end

$scope function uvm_oneway_hash $end
$var integer 32 v! uvm_oneway_hash $end
$var integer 32 w! seed $end
$var reg 1 x! msb $end
$var reg 8 y! current_byte [7:0] $end
$var reg 32 z! crc1 [31:0] $end
$upscope $end

$scope function uvm_create_random_seed $end
$var integer 32 {! uvm_create_random_seed $end
$upscope $end

$scope function uvm_object_value_str $end
$upscope $end

$scope function uvm_leaf_scope $end
$var reg 8 |! scope_separator [7:0] $end
$var reg 8 }! bracket_match [7:0] $end
$var integer 32 ~! pos $end
$var integer 32 !" bmatches $end
$upscope $end

$scope function uvm_vector_to_string $end
$var reg 4096 "" value [4095:0] $end
$var integer 32 #" size $end
$var integer 32 $" radix $end
$upscope $end

$scope function uvm_get_array_index_int $end
$var integer 32 %" uvm_get_array_index_int $end
$var reg 1 &" is_wildcard $end
$var integer 32 '" i $end
$upscope $end

$scope function uvm_get_array_index_string $end
$var reg 1 (" is_wildcard $end
$var integer 32 )" i $end
$upscope $end

$scope function uvm_is_array $end
$var reg 1 *" uvm_is_array $end
$upscope $end

$scope function uvm_has_wildcard $end
$upscope $end

$scope task run_test $end
$upscope $end

$scope function global_stop_request $end
$upscope $end

$scope function set_global_timeout $end
$var time 64 +" timeout $end
$var reg 1 ," overridable $end
$upscope $end

$scope function set_global_stop_timeout $end
$var time 64 -" timeout $end
$upscope $end

$scope function uvm_report_enabled $end
$var reg 1 ." uvm_report_enabled $end
$var integer 32 /" verbosity $end
$var reg 2 0" severity [1:0] $end
$upscope $end

$scope function uvm_report $end
$var reg 2 1" severity [1:0] $end
$var integer 32 2" verbosity $end
$var integer 32 3" line $end
$upscope $end

$scope function uvm_report_info $end
$var integer 32 4" verbosity $end
$var integer 32 5" line $end
$upscope $end

$scope function uvm_report_warning $end
$var integer 32 6" verbosity $end
$var integer 32 7" line $end
$upscope $end

$scope function uvm_report_error $end
$var integer 32 8" verbosity $end
$var integer 32 9" line $end
$upscope $end

$scope function uvm_report_fatal $end
$var integer 32 :" verbosity $end
$var integer 32 ;" line $end
$upscope $end

$scope function uvm_string_to_severity $end
$var reg 1 <" uvm_string_to_severity $end
$var reg 2 =" sev [1:0] $end
$upscope $end

$scope function uvm_string_to_action $end
$upscope $end

$scope function set_config_int $end
$var reg 4096 >" value [4095:0] $end
$upscope $end

$scope function set_config_object $end
$var reg 1 ?" clone $end
$upscope $end

$scope function set_config_string $end
$upscope $end

$scope function uvm_is_match $end
$var reg 1 @" uvm_is_match $end
$upscope $end

$scope function uvm_string_to_bits $end
$var reg 115200 A" uvm_string_to_bits [115199:0] $end
$upscope $end

$scope function uvm_bits_to_string $end
$var reg 115200 B" str [115199:0] $end
$upscope $end

$scope task uvm_wait_for_nba_region $end
$var integer 32 C" nba $end
$var integer 32 D" next_nba $end
$upscope $end

$scope function uvm_split_string $end
$upscope $end

$scope function uvm_hdl_concat2string $end
$upscope $end
$upscope $end

$scope begin axi4_uvm_pkg $end
$upscope $end

$scope begin testbench_sv_unit $end
$upscope $end

$scope begin std $end
$upscope $end

$scope begin questa_uvm_pkg $end
$upscope $end
$enddefinitions $end
#0
$dumpvars
0("
0*"
0<"
b0 ="
bx A"
bx B"
bx g!
bx i!
bx j!
bx m!
bx p!
1b!
1x!
b1110010 y!
b10000010101111110010001000101101 z!
bx ""
0&"
0,"
0."
b0 0"
b0 1"
bx >"
0?"
0@"
0!
0"
0#
00
0V
b0 W
0X
0_
b0 `
b0 a
0b
b0 e
0f
b0 m
b0 n
b0 o
b0 p
b0 q
b0 r
b0 s
b0 t
0u
b0 v
0w
b0 x
bx 4!
bx 5!
b0 6!
b0 7!
09!
0:!
b10000000000 ;!
b1000000000000 <!
b1111000000000000000000000000 =!
b10001 >!
b10101010101 ?!
b101010101 @!
b101010101 A!
b0 B!
b1 C!
b10 D!
b100 E!
b1000 F!
b10000 G!
b100000 H!
b1000000 I!
b10000000 J!
b100000000 K!
b1000000000 L!
b10000000000000 M!
b100000000000000 N!
b1000000000000000 O!
b10000000000000000 P!
b100000000000000000 Q!
b100000000000000001 R!
b100000000000000010 S!
b100000000000000011 T!
b100000000000000100 U!
b100000000000000101 V!
b100000000000000110 W!
b100000000000000110 X!
b100000000000000111 Y!
b100000000000001000 Z!
b100000000000001000 [!
b100110000010001110110110110 \!
b1 ]!
b1111000 ^!
b1111000 _!
b1110111111 `!
b11100000111111111 a!
b100 $
b100000 %
b1000 &
b11 '
b0 s!
b0 |!
b0 }!
b0 ~!
b0 !"
b0 )"
b0 e!
b0 f!
b0 h!
b0 l!
b0 n!
b0 o!
b1 q!
b0 r!
b1101001011000001111100000011110 c!
b101110 t!
b111 u!
b111100001111100011100010011011 v!
b1101001011000001111100000011110 w!
b10110001100101110110011110110011 {!
b0 #"
b0 $"
b0 %"
b0 '"
b111110100 /"
b0 2"
b0 3"
b11001000 4"
b11011000 5"
b0 6"
b0 7"
b0 8"
b0 9"
b0 :"
b0 ;"
b100011 C"
b100011 D"
b11111111111111111111111111111111 d!
b11111111111111111111111111111111 8!
bx k!
bx +"
bx -"
0?
0>
0=
0<
0;
0:
09
08
07
06
05
04
03
02
01
0T
0S
0R
0Q
0U
0Y
0]
0\
0[
0Z
0^
0c
0d
1g
0h
0i
0j
0k
0l
0{
0z
0y
0~
0}
0|
0$!
0#!
0"!
0!!
0(!
0'!
0&!
0%!
1,!
0+!
0*!
0)!
0-!
1.!
1/!
03!
02!
01!
00!
0*
0)
0(
0.
0-
0,
0+
0/
0P
0O
0N
0M
0L
0K
0J
0I
0H
0G
0F
0E
0D
0C
0B
0A
0@
$end
#5000
1!
1(
#7000
1"
1)
#10000
0!
0(
#14000
0"
0)
#15000
1!
1(
#20000
0!
0(
#21000
1"
1)
#25000
1!
1(
#28000
0"
0)
#30000
0!
0(
#35000
1"
1!
1)
1(
#40000
0!
0(
#42000
0"
0)
#45000
1!
1(
#49000
1"
1)
#50000
1#
0!
1*
0(
b100100 D"
b100100 C"
#55000
1!
1(
1:!
10
1V
1_
1l
1/
1T
1S
1R
1Q
1P
1O
1N
1M
1K
1J
1I
1G
1F
1E
1D
1C
1A
1@
1>
1=
1;
19
17
16
15
14
12
11
1U
#56000
0"
0)
#60000
0!
0(
#63000
1"
1)
#65000
1!
1(
b1 5!
b1 4!
1u
1w
b11011110101011011011111011101111 x
b1 m
b1 o
1X
0u
0w
0/!
1{
0,!
1+!
13!
0/
0U
1Y
#70000
0"
0!
0)
0(
#75000
1!
1(
b101110 |!
b1 ~!
b0 ~!
b1100001101010000 ""
b1000000 #"
b1001000000000000000000000000 $"
b1100 ~!
b1011 ~!
b1010 ~!
b1001 ~!
b1000 ~!
b111 ~!
b110 ~!
b101 ~!
b100 ~!
b11 ~!
b10 ~!
b11111111111111111111111111111111 !"
b10 ""
b100000 #"
b10000000000000000000000000 $"
b0 !"
b111 ~!
b110 ~!
b101 ~!
b100 ~!
b11 ~!
b10 ~!
b11111111111111111111111111111111 !"
b0 !"
b11000 ~!
b10111 ~!
b10110 ~!
b10101 ~!
b10100 ~!
b10011 ~!
b10010 ~!
b10001 ~!
b10000 ~!
b1111 ~!
b1110 ~!
b1101 ~!
b1100 ~!
b1011 ~!
b1010 ~!
b1001 ~!
b1000 ~!
b111 ~!
b110 ~!
b101 ~!
b100 ~!
b11 ~!
b10 ~!
b11111111111111111111111111111111 !"
b0 !"
b11101 ~!
b11100 ~!
b11011 ~!
b11010 ~!
b11001 ~!
b11000 ~!
b10111 ~!
b10110 ~!
b10101 ~!
b10100 ~!
b10011 ~!
b10010 ~!
b10001 ~!
b10000 ~!
b1111 ~!
b1110 ~!
b1101 ~!
b1100 ~!
b1011 ~!
b1010 ~!
b1001 ~!
b1000 ~!
b111 ~!
b110 ~!
b101 ~!
b100 ~!
b11 ~!
b10 ~!
b11111111111111111111111111111111 !"
b0 !"
b1011 ~!
b1010 ~!
b1001 ~!
b1000 ~!
b111 ~!
b110 ~!
b101 ~!
b100 ~!
b11 ~!
b10 ~!
b11111111111111111111111111111111 !"
b100101 D"
b111100001111100011100010011100 {!
00
0V
0X
b100101 C"
0Y
#77000
1"
1)
b1 s
#80000
0!
0(
#84000
0"
0)
#85000
1!
1(
10
1V
1/
0P
1L
0F
0D
0C
1B
1:
13
1U
#90000
0!
0(
#91000
1"
1)
b1 t
b1 7!
b10 8!
b1 8!
b0 8!
b1 6!
b11111111111111111111111111111111 8!
1(!
0.!
0g
#95000
1!
1(
b10 5!
b11 4!
1u
1w
b11111110111011011100101011111110 x
b10 m
b11 o
1X
0u
0w
0{
1z
1,!
03!
12!
0/
0U
1Y
#98000
0"
0)
#100000
0!
0(
#105000
1"
1!
1)
1(
b0 !"
b1 ~!
b0 ~!
b10010010011111000 ""
b1000000 #"
b1001000000000000000000000000 $"
b1100 ~!
b1011 ~!
b1010 ~!
b1001 ~!
b1000 ~!
b111 ~!
b110 ~!
b101 ~!
b100 ~!
b11 ~!
b10 ~!
b11111111111111111111111111111111 !"
b0 !"
b1010 ~!
b1001 ~!
b1000 ~!
b111 ~!
b110 ~!
b101 ~!
b100 ~!
b11 ~!
b10 ~!
b11111111111111111111111111111111 !"
b10 ""
b100000 #"
b10000000000000000000000000 $"
b0 !"
b111 ~!
b110 ~!
b101 ~!
b100 ~!
b11 ~!
b10 ~!
b11111111111111111111111111111111 !"
b0 !"
b11000 ~!
b10111 ~!
b10110 ~!
b10101 ~!
b10100 ~!
b10011 ~!
b10010 ~!
b10001 ~!
b10000 ~!
b1111 ~!
b1110 ~!
b1101 ~!
b1100 ~!
b1011 ~!
b1010 ~!
b1001 ~!
b1000 ~!
b111 ~!
b110 ~!
b101 ~!
b100 ~!
b11 ~!
b10 ~!
b11111111111111111111111111111111 !"
b0 !"
b11101 ~!
b11100 ~!
b11011 ~!
b11010 ~!
b11001 ~!
b11000 ~!
b10111 ~!
b10110 ~!
b10101 ~!
b10100 ~!
b10011 ~!
b10010 ~!
b10001 ~!
b10000 ~!
b1111 ~!
b1110 ~!
b1101 ~!
b1100 ~!
b1011 ~!
b1010 ~!
b1001 ~!
b1000 ~!
b111 ~!
b110 ~!
b101 ~!
b100 ~!
b11 ~!
b10 ~!
b11111111111111111111111111111111 !"
b0 !"
b1011 ~!
b1010 ~!
b1001 ~!
b1000 ~!
b111 ~!
b110 ~!
b101 ~!
b100 ~!
b11 ~!
b10 ~!
b11111111111111111111111111111111 !"
b100110 D"
b111100001111100011100010011110 {!
00
0V
0X
b11 s
b100110 C"
0Y
#110000
0!
0(
#112000
0"
0)
#115000
1!
1(
10
1V
#119000
1"
1)
b11 t
b11 7!
b10 8!
b1 8!
b11 6!
b0 8!
b10 6!
b11111111111111111111111111111111 8!
0(!
1'!
1d
#120000
0!
0(
#125000
1!
1(
#126000
0"
0)
#130000
0!
0(
#133000
1"
1)
b1 5!
b1 4!
b0 !"
b1 ~!
b0 ~!
b11001101000101000 ""
b1000000 #"
b1001000000000000000000000000 $"
b1100 ~!
b1011 ~!
b1010 ~!
b1001 ~!
b1000 ~!
b111 ~!
b110 ~!
b101 ~!
b100 ~!
b11 ~!
b10 ~!
b11111111111111111111111111111111 !"
b0 !"
b1010 ~!
b1001 ~!
b1000 ~!
b111 ~!
b110 ~!
b101 ~!
b100 ~!
b11 ~!
b10 ~!
b11111111111111111111111111111111 !"
b10 ""
b100000 #"
b10000000000000000000000000 $"
b0 !"
b111 ~!
b110 ~!
b101 ~!
b100 ~!
b11 ~!
b10 ~!
b11111111111111111111111111111111 !"
b0 !"
b11000 ~!
b10111 ~!
b10110 ~!
b10101 ~!
b10100 ~!
b10011 ~!
b10010 ~!
b10001 ~!
b10000 ~!
b1111 ~!
b1110 ~!
b1101 ~!
b1100 ~!
b1011 ~!
b1010 ~!
b1001 ~!
b1000 ~!
b111 ~!
b110 ~!
b101 ~!
b100 ~!
b11 ~!
b10 ~!
b11111111111111111111111111111111 !"
b0 !"
b11101 ~!
b11100 ~!
b11011 ~!
b11010 ~!
b11001 ~!
b11000 ~!
b10111 ~!
b10110 ~!
b10101 ~!
b10100 ~!
b10011 ~!
b10010 ~!
b10001 ~!
b10000 ~!
b1111 ~!
b1110 ~!
b1101 ~!
b1100 ~!
b1011 ~!
b1010 ~!
b1001 ~!
b1000 ~!
b111 ~!
b110 ~!
b101 ~!
b100 ~!
b11 ~!
b10 ~!
b11111111111111111111111111111111 !"
b0 !"
b1011 ~!
b1010 ~!
b1001 ~!
b1000 ~!
b111 ~!
b110 ~!
b101 ~!
b100 ~!
b11 ~!
b10 ~!
b11111111111111111111111111111111 !"
b100111 D"
b111100001111100011100010100001 {!
b11011110101011011011111011101111 e
1f
b1 n
b1 p
b100111 C"
1~
0d
#135000
1!
1(
b1 q
#140000
0"
0!
0)
0(
#145000
1!
1(
b1 r
b1 7!
b10 8!
b1 8!
b0 6!
b0 8!
b1 6!
b11111111111111111111111111111111 8!
1$!
13!
02!
#147000
1"
1)
0f
1d
#150000
0!
0(
#154000
0"
0)
#155000
1!
1(
#160000
0!
0(
#161000
1"
1)
b10 5!
b11 4!
b0 !"
b1 ~!
b0 ~!
b100000011110001000 ""
b1000000 #"
b1001000000000000000000000000 $"
b1100 ~!
b1011 ~!
b1010 ~!
b1001 ~!
b1000 ~!
b111 ~!
b110 ~!
b101 ~!
b100 ~!
b11 ~!
b10 ~!
b11111111111111111111111111111111 !"
b0 !"
b1010 ~!
b1001 ~!
b1000 ~!
b111 ~!
b110 ~!
b101 ~!
b100 ~!
b11 ~!
b10 ~!
b11111111111111111111111111111111 !"
b10 ""
b100000 #"
b10000000000000000000000000 $"
b0 !"
b111 ~!
b110 ~!
b101 ~!
b100 ~!
b11 ~!
b10 ~!
b11111111111111111111111111111111 !"
b0 !"
b11000 ~!
b10111 ~!
b10110 ~!
b10101 ~!
b10100 ~!
b10011 ~!
b10010 ~!
b10001 ~!
b10000 ~!
b1111 ~!
b1110 ~!
b1101 ~!
b1100 ~!
b1011 ~!
b1010 ~!
b1001 ~!
b1000 ~!
b111 ~!
b110 ~!
b101 ~!
b100 ~!
b11 ~!
b10 ~!
b11111111111111111111111111111111 !"
b0 !"
b11101 ~!
b11100 ~!
b11011 ~!
b11010 ~!
b11001 ~!
b11000 ~!
b10111 ~!
b10110 ~!
b10101 ~!
b10100 ~!
b10011 ~!
b10010 ~!
b10001 ~!
b10000 ~!
b1111 ~!
b1110 ~!
b1101 ~!
b1100 ~!
b1011 ~!
b1010 ~!
b1001 ~!
b1000 ~!
b111 ~!
b110 ~!
b101 ~!
b100 ~!
b11 ~!
b10 ~!
b11111111111111111111111111111111 !"
b0 !"
b1011 ~!
b1010 ~!
b1001 ~!
b1000 ~!
b111 ~!
b110 ~!
b101 ~!
b100 ~!
b11 ~!
b10 ~!
b11111111111111111111111111111111 !"
b101000 D"
b11111110111011011100101011111110 e
1f
b10 n
b11 p
b101000 C"
1.!
0~
1}
0d
1g
#165000
1!
1(
b11 q
#168000
0"
0)
#170000
0!
0(
#175000
1"
1!
1)
1(
b11 r
0f
b11 7!
b10 8!
b1 8!
b11 6!
b0 8!
b10 6!
b11111111111111111111111111111111 8!
0$!
1#!
03!
1/!
